﻿web-scraper-order,web-scraper-start-url,produk,produk-href,nama,terjual,rating,harga,
"1624804233-20","https://shopee.co.id/Komputer-Aksesoris-cat.134?page=0","Tinta Epson 664 Printer  L120/L210/L220/L360GrosirRp18.30010RB+ TerjualKOTA BOGOR","https://shopee.co.id/Tinta-Epson-664-Printer-L120-L210-L220-L360-i.104772569.4113172433","Tinta Epson 664 Printer  L120/L210/L220/L360","10RB+","4.8","null","null"
"1624804291-43","https://shopee.co.id/Komputer-Aksesoris-cat.134?page=0","Fingertip Pulse Oximeter Oximetry Sp02 Saturation Monitor LED AB-88Rp215.000 - Rp328.00010RB+ TerjualKOTA JAKARTA UTARA","https://shopee.co.id/Fingertip-Pulse-Oximeter-Oximetry-Sp02-Saturation-Monitor-LED-AB-88-i.61050481.3337090657","Fingertip Pulse Oximeter Oximetry Sp02 Saturation Monitor LED AB-88","10RB+","4.8","null","null"
"1624804205-9","https://shopee.co.id/Komputer-Aksesoris-cat.134?page=0","Star43%offTinta Epson 003 L3100 L3150 DiskonMurah LebayPilih 10, diskon Rp2.500Rp40.000Rp23.00010RB+ TerjualKOTA JAKARTA TIMUR","https://shopee.co.id/Tinta-Epson-003-L3100-L3150-Diskon-i.264873804.6242714075","Tinta Epson 003 L3100 L3150 Diskon","10RB+","4.9","null","null"
"1624804277-37","https://shopee.co.id/Komputer-Aksesoris-cat.134?page=0","31%offSanDisk CZ50 Cruzer Blade (32 GB)Rp93.750Rp64.50010RB+ TerjualKOTA JAKARTA BARAT","https://shopee.co.id/SanDisk-CZ50-Cruzer-Blade-(32-GB)-i.1657263.3441711","SanDisk CZ50 Cruzer Blade (32 GB)","10RB+","4.8","null","null"
"1624804241-23","https://shopee.co.id/Komputer-Aksesoris-cat.134?page=0","StarPATCH CORD / PATCHCORD FIBER OPTIC SC UPC 3M ( SC SC )GrosirRp9.00010RB+ TerjualKAB. BANYUWANGI","https://shopee.co.id/PATCH-CORD-PATCHCORD-FIBER-OPTIC-SC-UPC-3M-(-SC-SC-)-i.265723220.3544055432","PATCH CORD / PATCHCORD FIBER OPTIC SC UPC 3M ( SC SC )","10RB+","4.9","null","null"
"1624804265-32","https://shopee.co.id/Komputer-Aksesoris-cat.134?page=0","48%offMeja Laptop / Meja Lipat / Meja Belajar / Meja Lipat Laptop / Meja Belajar AnakMurah LebayKombo HematRp99.000Rp51.50010RB+ TerjualKOTA JAKARTA BARAT","https://shopee.co.id/Meja-Laptop-Meja-Lipat-Meja-Belajar-Meja-Lipat-Laptop-Meja-Belajar-Anak-i.78384909.3541882901","Meja Laptop / Meja Lipat / Meja Belajar / Meja Lipat Laptop / Meja Belajar Anak","10RB+","4.8","null","null"
"1624804295-45","https://shopee.co.id/Komputer-Aksesoris-cat.134?page=0","15%offMACBOOK Case Clear Transparan Bening NEW AIR PRO M1 RETINA 2019 2020 11 12 13 15 CD DVD / TOUCHBARMurah LebayKombo HematRp85.000 - Rp90.00010RB+ TerjualKOTA BANDUNG","https://shopee.co.id/MACBOOK-Case-Clear-Transparan-Bening-NEW-AIR-PRO-M1-RETINA-2019-2020-11-12-13-15-CD-DVD-TOUCHBAR-i.4077474.1415439301","MACBOOK Case Clear Transparan Bening NEW AIR PRO M1 RETINA 2019 2020 11 12 13 15 CD DVD / TOUCHBAR","10RB+","4.9","null","null"
"1624804310-51","https://shopee.co.id/Komputer-Aksesoris-cat.134?page=0","StarMeja Laptop,  meja Belajar karakter  Serbaguna  and portableMurah LebayRp58.990 - Rp139.99010RB+ TerjualKOTA JAKARTA UTARA","https://shopee.co.id/Meja-Laptop-meja-Belajar-karakter-Serbaguna-and-portable-i.292063046.5147057326","Meja Laptop,  meja Belajar karakter  Serbaguna  and portable","10RB+","4.9","null","null"
"1624804293-44","https://shopee.co.id/Komputer-Aksesoris-cat.134?page=0","Star17%offPenguat Sinyal Xiaomi WiFi Extender PRO Signal Booster 300Mbps Repeater AmplifierMurah LebayRp145.000Rp120.0008,7RB TerjualKOTA JAKARTA BARAT","https://shopee.co.id/Penguat-Sinyal-Xiaomi-WiFi-Extender-PRO-Signal-Booster-300Mbps-Repeater-Amplifier-i.8199354.4046218756","Penguat Sinyal Xiaomi WiFi Extender PRO Signal Booster 300Mbps Repeater Amplifier","8,7RB","4.8","null","null"
"1624804256-29","https://shopee.co.id/Komputer-Aksesoris-cat.134?page=0","71%offCover Lensa Kamera Webcam Laptop Universal Ultra Tipis Anti Spy Untuk PrivasiRp2.009 - Rp11.8567,3RB TerjualLuar Negeri","https://shopee.co.id/Cover-Lensa-Kamera-Webcam-Laptop-Universal-Ultra-Tipis-Anti-Spy-Untuk-Privasi-i.79900372.4057344134","Cover Lensa Kamera Webcam Laptop Universal Ultra Tipis Anti Spy Untuk Privasi","7,3RB","4.9","null","null"
"1624804188-2","https://shopee.co.id/Komputer-Aksesoris-cat.134?page=0","OUTEMU Mechanical Switch SMD RGB - BLUE, RED, BROWN, BLACK, TEAL & PURPLERp3.500 - Rp4.9005,6RB TerjualKOTA JAKARTA BARAT","https://shopee.co.id/OUTEMU-Mechanical-Switch-SMD-RGB-BLUE-RED-BROWN-BLACK-TEAL-PURPLE-i.31228096.3679724450","OUTEMU Mechanical Switch SMD RGB - BLUE, RED, BROWN, BLACK, TEAL & PURPLE","5,6RB","4.9","null","null"
"1624804259-30","https://shopee.co.id/Komputer-Aksesoris-cat.134?page=0","18%offPRINTER BLUETOOTH KASIR IWARE C-58BT SUPPORT CASH DRAWERMurah LebayDiskon Rp7,5RBRp305.000Rp250.0006,8RB TerjualKOTA SURABAYA","https://shopee.co.id/PRINTER-BLUETOOTH-KASIR-IWARE-C-58BT-SUPPORT-CASH-DRAWER-i.96461171.1825547525","PRINTER BLUETOOTH KASIR IWARE C-58BT SUPPORT CASH DRAWER","6,8RB","4.8","null","null"
"1624804282-39","https://shopee.co.id/Komputer-Aksesoris-cat.134?page=0","StarCase CD Tempat Kaset Mika Bening SINGELGrosirRp3.0004,3RB TerjualKOTA SURABAYA","https://shopee.co.id/Case-CD-Tempat-Kaset-Mika-Bening-SINGEL-i.11416216.6616316185","Case CD Tempat Kaset Mika Bening SINGEL","4,3RB","4.8","null","null"
"1624804239-22","https://shopee.co.id/Komputer-Aksesoris-cat.134?page=0","StarAdapter SC ADAPTOR/OPTIK/OPTIC/FO/FIBER sambungan fiber optic adaptor sc upc FTTH FIBER OPTIC FOGrosirRp99010RB+ TerjualKOTA JAKARTA UTARA","https://shopee.co.id/Adapter-SC-ADAPTOR-OPTIK-OPTIC-FO-FIBER-sambungan-fiber-optic-adaptor-sc-upc-FTTH-FIBER-OPTIC-FO-i.190688456.4503373132","Adapter SC ADAPTOR/OPTIK/OPTIC/FO/FIBER sambungan fiber optic adaptor sc upc FTTH FIBER OPTIC FO","10RB+","4.9","null","null"
"1624804333-60","https://shopee.co.id/Komputer-Aksesoris-cat.134?page=0","74%offZOOM MEETING PRO 100/300/500/1000 peserta - 1 bulanRp59.000 - Rp400.00010RB+ TerjualKOTA JAKARTA TIMUR","https://shopee.co.id/ZOOM-MEETING-PRO-100-300-500-1000-peserta-1-bulan-i.295954796.9313720825","ZOOM MEETING PRO 100/300/500/1000 peserta - 1 bulan","10RB+","5.0","null","null"
"1624804267-33","https://shopee.co.id/Komputer-Aksesoris-cat.134?page=0","48%offTinta Epson 664 For Ink Printer L100/L120/L200/L210/L220/L310/L360Murah LebayPilih 10, bayar Rp181.000Rp35.000Rp18.20010RB+ TerjualKOTA JAKARTA TIMUR","https://shopee.co.id/Tinta-Epson-664-For-Ink-Printer-L100-L120-L200-L210-L220-L310-L360-i.202854613.7308583762","Tinta Epson 664 For Ink Printer L100/L120/L200/L210/L220/L310/L360","10RB+","4.9","null","null"
"1624804193-4","https://shopee.co.id/Komputer-Aksesoris-cat.134?page=0","VR TELKOMSEL  2.5GBGrosirRp9.95010RB+ TerjualKOTA BANDUNG","https://shopee.co.id/VR-TELKOMSEL-2.5GB-i.120520703.7910071809","VR TELKOMSEL  2.5GB","10RB+","5.0","null","null"
"1624804212-12","https://shopee.co.id/Komputer-Aksesoris-cat.134?page=0","Kertas thermal 57x30 mm / Kertas Struk 58x30 mm printer bluetooth polos, SPOTS, EDC BRI 57 X 30Rp1.70010RB+ TerjualKOTA JAKARTA SELATAN","https://shopee.co.id/Kertas-thermal-57x30-mm-Kertas-Struk-58x30-mm-printer-bluetooth-polos-SPOTS-EDC-BRI-57-X-30-i.107139642.2470678040","Kertas thermal 57x30 mm / Kertas Struk 58x30 mm printer bluetooth polos, SPOTS, EDC BRI 57 X 30","10RB+","4.9","null","null"
"1624804298-46","https://shopee.co.id/Komputer-Aksesoris-cat.134?page=0","Star44%offbonkyo Wireless Optical Mouse Dan Minimalism - MSE6Kombo HematRp79.900Rp45.00010RB+ TerjualKOTA JAKARTA BARAT","https://shopee.co.id/bonkyo-Wireless-Optical-Mouse-Dan-Minimalism-MSE6-i.159093915.3717413132","bonkyo Wireless Optical Mouse Dan Minimalism - MSE6","10RB+","4.9","null","null"
"1624804321-55","https://shopee.co.id/Komputer-Aksesoris-cat.134?page=0","Star40%offXiaomi Mi Wifi Range Extender Pro Mi WIFI Repeater Pro Mi Wifi Amplifier Pro Penguat Sinyal WifiKombo HematRp199.000Rp119.00010RB+ TerjualKOTA JAKARTA UTARA","https://shopee.co.id/Xiaomi-Mi-Wifi-Range-Extender-Pro-Mi-WIFI-Repeater-Pro-Mi-Wifi-Amplifier-Pro-Penguat-Sinyal-Wifi-i.241474205.5652498321","Xiaomi Mi Wifi Range Extender Pro Mi WIFI Repeater Pro Mi Wifi Amplifier Pro Penguat Sinyal Wifi","10RB+","4.9","null","null"
"1624804273-35","https://shopee.co.id/Komputer-Aksesoris-cat.134?page=0","Fisik Telkomsel 2.5GBRp9.99110RB+ TerjualKOTA BANDUNG","https://shopee.co.id/Fisik-Telkomsel-2.5GB-i.277967432.3940605409","Fisik Telkomsel 2.5GB","10RB+","5.0","null","null"
"1624804224-16","https://shopee.co.id/Komputer-Aksesoris-cat.134?page=0","Star39%off14Inch Laptop Keyboard Cover Protector for HP Pavilion 14 Series Notebook Skin 14q-cs0001TX I5-8250U 14-ce307 14-bsDiskon Rp1RBPilih 2, diskon 3%Rp22.374 - Rp29.6208RB TerjualLuar Negeri","https://shopee.co.id/14Inch-Laptop-Keyboard-Cover-Protector-for-HP-Pavilion-14-Series-Notebook-Skin-14q-cs0001TX-I5-8250U-14-ce307-14-bs-i.145974705.2596324459","14Inch Laptop Keyboard Cover Protector for HP Pavilion 14 Series Notebook Skin 14q-cs0001TX I5-8250U 14-ce307 14-bs","8RB","4.8","null","null"
"1624804217-14","https://shopee.co.id/Komputer-Aksesoris-cat.134?page=0","PEN STYLUS 2IN1 Touch Screen Stylus Ballpoint For SmartphoneRp2.4009,9RB TerjualKOTA TANGERANG SELATAN","https://shopee.co.id/PEN-STYLUS-2IN1-Touch-Screen-Stylus-Ballpoint-For-Smartphone-i.7299953.6243224948","PEN STYLUS 2IN1 Touch Screen Stylus Ballpoint For Smartphone","9,9RB","4.8","null","null"
"1624804226-17","https://shopee.co.id/Komputer-Aksesoris-cat.134?page=0","20%offKertas Struk Kasir Paper Roll Termal EDC BRI Thermal Printer Mini Bluetooth SPOTS 58mm 58x30 57x30GrosirRp1.850Rp1.48910RB+ TerjualKOTA SEMARANG","https://shopee.co.id/Kertas-Struk-Kasir-Paper-Roll-Termal-EDC-BRI-Thermal-Printer-Mini-Bluetooth-SPOTS-58mm-58x30-57x30-i.175343744.2889558053","Kertas Struk Kasir Paper Roll Termal EDC BRI Thermal Printer Mini Bluetooth SPOTS 58mm 58x30 57x30","10RB+","4.8","null","null"
"1624804235-21","https://shopee.co.id/Komputer-Aksesoris-cat.134?page=0","32%offSound card V8 Mixer SoundCard V8 MIXER Audio USB External SoundcardRp145.000Rp98.6008,6RB TerjualKOTA JAKARTA UTARA","https://shopee.co.id/Sound-card-V8-Mixer-SoundCard-V8-MIXER-Audio-USB-External-Soundcard-i.61050481.7042353721","Sound card V8 Mixer SoundCard V8 MIXER Audio USB External Soundcard","8,6RB","4.7","null","null"
"1624804316-53","https://shopee.co.id/Komputer-Aksesoris-cat.134?page=0","Star72%offCase Unitech Multifungsi - Hardcase Harddisk 2.5"" Hard Drive ProtectionMurah LebayRp60.000Rp17.0009,4RB TerjualKOTA JAKARTA UTARA","https://shopee.co.id/Case-Unitech-Multifungsi-Hardcase-Harddisk-2.5-Hard-Drive-Protection-i.1596789.3609807062","Case Unitech Multifungsi - Hardcase Harddisk 2.5"" Hard Drive Protection","9,4RB","4.8","null","null"
"1624804190-3","https://shopee.co.id/Komputer-Aksesoris-cat.134?page=0","StarAdapter Converter Hard Disk SATA to USB3.0/2.0 untuk HDD 2.5Inch SSD Converter USB to SATA(22pin)Murah LebayRp29.900 - Rp54.0004,6RB TerjualKOTA JAKARTA UTARA","https://shopee.co.id/Adapter-Converter-Hard-Disk-SATA-to-USB3.0-2.0-untuk-HDD-2.5Inch-SSD-Converter-USB-to-SATA(22pin)-i.92926274.2684021983","Adapter Converter Hard Disk SATA to USB3.0/2.0 untuk HDD 2.5Inch SSD Converter USB to SATA(22pin)","4,6RB","4.7","null","null"
"1624804185-1","https://shopee.co.id/Komputer-Aksesoris-cat.134?page=0","Star2%offSC UPC/APC FTTH Konektor Fiber Optic SC / UPC Fiber Optic SC Fast ConnectorMurah LebayRp4.000 - Rp4.90010RB+ TerjualKAB. SIDOARJO","https://shopee.co.id/SC-UPC-APC-FTTH-Konektor-Fiber-Optic-SC-UPC-Fiber-Optic-SC-Fast-Connector-i.34708533.4538518550","SC UPC/APC FTTH Konektor Fiber Optic SC / UPC Fiber Optic SC Fast Connector","10RB+","4.9","null","null"
"1624804210-11","https://shopee.co.id/Komputer-Aksesoris-cat.134?page=0","StarCooling Pad Laptop 5 Fan Pendingin Laptop Cooling Cooler fan Kipas Pendingin Notebook K5Diskon 75%Rp196.0004,9RB TerjualKOTA JAKARTA BARAT","https://shopee.co.id/Cooling-Pad-Laptop-5-Fan-Pendingin-Laptop-Cooling-Cooler-fan-Kipas-Pendingin-Notebook-K5-i.16180441.1593523734","Cooling Pad Laptop 5 Fan Pendingin Laptop Cooling Cooler fan Kipas Pendingin Notebook K5","4,9RB","4.7","null","null"
"1624804200-7","https://shopee.co.id/Komputer-Aksesoris-cat.134?page=0","Star[COD] 2F4E 10/100M Ethernet Switch 2 Fiber Port SC 25KM 4 UTP RJ45 Fiber Optical Switch PCBA BoardRp163.000 - Rp183.0003,1RB TerjualKAB. SIDOARJO","https://shopee.co.id/-COD-2F4E-10-100M-Ethernet-Switch-2-Fiber-Port-SC-25KM-4-UTP-RJ45-Fiber-Optical-Switch-PCBA-Board-i.34708533.7451375483","[COD] 2F4E 10/100M Ethernet Switch 2 Fiber Port SC 25KM 4 UTP RJ45 Fiber Optical Switch PCBA Board","3,1RB","4.9","null","null"
"1624804197-6","https://shopee.co.id/Komputer-Aksesoris-cat.134?page=0","Fsk tsel 2.5gbRp9.99110RB+ TerjualKOTA BANDUNG","https://shopee.co.id/Fsk-tsel-2.5gb-i.96694845.7016111859","Fsk tsel 2.5gb","10RB+","5.0","null","null"
"1624804195-5","https://shopee.co.id/Komputer-Aksesoris-cat.134?page=0","CONVERTER HDMI TO VGA -ADAPTER//Murah LebayRp16.8009,6RB TerjualKOTA JAKARTA UTARA","https://shopee.co.id/CONVERTER-HDMI-TO-VGA-ADAPTER--i.12097207.129899283","CONVERTER HDMI TO VGA -ADAPTER//","9,6RB","4.7","null","null"
"1624804231-19","https://shopee.co.id/Komputer-Aksesoris-cat.134?page=0","45%offLABEL STICKER THERMAL BARCODE 100x150mm (10x15cm 300Pcs Core 1"") MURAH A6, 4"" x 6""Murah LebayRp90.000Rp49.50010RB+ TerjualKOTA JAKARTA PUSAT","https://shopee.co.id/LABEL-STICKER-THERMAL-BARCODE-100x150mm-(10x15cm-300Pcs-Core-1-)-MURAH-A6-4-x-6--i.31515714.6838783849","LABEL STICKER THERMAL BARCODE 100x150mm (10x15cm 300Pcs Core 1"") MURAH A6, 4"" x 6""","10RB+","4.8","null","null"
"1624804300-47","https://shopee.co.id/Komputer-Aksesoris-cat.134?page=0","38%offSanDisk CZ50 Cruzer Blade (16 GB)Murah LebayRp85.000Rp53.00010RB+ TerjualKOTA JAKARTA BARAT","https://shopee.co.id/SanDisk-CZ50-Cruzer-Blade-(16-GB)-i.1657263.3441343","SanDisk CZ50 Cruzer Blade (16 GB)","10RB+","4.9","null","null"
"1624804328-58","https://shopee.co.id/Komputer-Aksesoris-cat.134?page=0","48%offLogitech B175 Wireless MouseRp189.000Rp98.00010RB+ TerjualKOTA JAKARTA PUSAT","https://shopee.co.id/Logitech-B175-Wireless-Mouse-i.37146675.652452058","Logitech B175 Wireless Mouse","10RB+","4.9","null","null"
"1624804262-31","https://shopee.co.id/Komputer-Aksesoris-cat.134?page=0","Stylus + Pen 2IN1 Ballpoint Pulpen Smartphone Hp Touchscreen Touch Screen Pena Sensitive Tablet IpadMurah LebayRp2.40010RB+ TerjualKOTA JAKARTA SELATAN","https://shopee.co.id/Stylus-Pen-2IN1-Ballpoint-Pulpen-Smartphone-Hp-Touchscreen-Touch-Screen-Pena-Sensitive-Tablet-Ipad-i.31169310.4215272970","Stylus + Pen 2IN1 Ballpoint Pulpen Smartphone Hp Touchscreen Touch Screen Pena Sensitive Tablet Ipad","10RB+","4.8","null","null"
"1624804330-59","https://shopee.co.id/Komputer-Aksesoris-cat.134?page=0","NETFLIX PREMIUM UHD 4K RESMI ANTI HOLD BANNED GARANSI FULL TERPERCAYARp38.500 - Rp192.50010RB+ TerjualKOTA JAKARTA PUSAT","https://shopee.co.id/NETFLIX-PREMIUM-UHD-4K-RESMI-ANTI-HOLD-BANNED-GARANSI-FULL-TERPERCAYA-i.235485818.7019571014","NETFLIX PREMIUM UHD 4K RESMI ANTI HOLD BANNED GARANSI FULL TERPERCAYA","10RB+","5.0","null","null"
"1624804286-41","https://shopee.co.id/Komputer-Aksesoris-cat.134?page=0","MINI PORTABLE/MOBILE RECIEPT POS PRINTER PANDA PRJ-58D 58MM KERTAS THERMAL KASIR/PPOB(USB+BLUETOOTH)Rp350.00010RB+ TerjualKOTA JAKARTA BARAT","https://shopee.co.id/MINI-PORTABLE-MOBILE-RECIEPT-POS-PRINTER-PANDA-PRJ-58D-58MM-KERTAS-THERMAL-KASIR-PPOB(USB-BLUETOOTH)-i.106333154.1695312052","MINI PORTABLE/MOBILE RECIEPT POS PRINTER PANDA PRJ-58D 58MM KERTAS THERMAL KASIR/PPOB(USB+BLUETOOTH)","10RB+","4.9","null","null"
"1624804269-34","https://shopee.co.id/Komputer-Aksesoris-cat.134?page=0","53%offSanDisk Cruzer Blade CZ50 USB Flash Drive 16GBHadiah GratisRp102.800Rp48.50010RB+ TerjualKOTA SURABAYA","https://shopee.co.id/SanDisk-Cruzer-Blade-CZ50-USB-Flash-Drive-16GB-i.222882497.5116114332","SanDisk Cruzer Blade CZ50 USB Flash Drive 16GB","10RB+","4.9","null","null"
"1624804247-25","https://shopee.co.id/Komputer-Aksesoris-cat.134?page=0","Star39%offKeyboard Game - Keyboard Gaming LED With MouseDiskon Rp3RBRp275.500Rp168.05510RB+ TerjualKOTA SURABAYA","https://shopee.co.id/Keyboard-Game-Keyboard-Gaming-LED-With-Mouse-i.31465549.8923304395","Keyboard Game - Keyboard Gaming LED With Mouse","10RB+","5.0","null","null"
"1624804305-49","https://shopee.co.id/Komputer-Aksesoris-cat.134?page=0","Star50%offAcetech Mousepad / Alas Mouse Mouse PadMurah LebayRp15.000Rp7.50010RB+ TerjualKOTA JAKARTA UTARA","https://shopee.co.id/Acetech-Mousepad-Alas-Mouse-Mouse-Pad-i.1596789.131346543","Acetech Mousepad / Alas Mouse Mouse Pad","10RB+","4.9","null","null"
"1624804325-57","https://shopee.co.id/Komputer-Aksesoris-cat.134?page=0","PELINDUNG PENUTUP WEBCAM KAMERA COVER CAMERA LAPTOP HP MACBOOK IPHONE ASUS DELL SAMSUNGRp6.000 - Rp10.0009,8RB TerjualKOTA BANDUNG","https://shopee.co.id/PELINDUNG-PENUTUP-WEBCAM-KAMERA-COVER-CAMERA-LAPTOP-HP-MACBOOK-IPHONE-ASUS-DELL-SAMSUNG-i.4077474.4745182278","PELINDUNG PENUTUP WEBCAM KAMERA COVER CAMERA LAPTOP HP MACBOOK IPHONE ASUS DELL SAMSUNG","9,8RB","4.9","null","null"
"1624804252-27","https://shopee.co.id/Komputer-Aksesoris-cat.134?page=0","StarSuntikan tinta 5ml / Syringe Spuid 5ml / Suntik 5 ml MurahRp1.0008,5RB TerjualKOTA SURABAYA","https://shopee.co.id/Suntikan-tinta-5ml-Syringe-Spuid-5ml-Suntik-5-ml-Murah-i.6298602.621781228","Suntikan tinta 5ml / Syringe Spuid 5ml / Suntik 5 ml Murah","8,5RB","4.9","null","null"
"1624804219-15","https://shopee.co.id/Komputer-Aksesoris-cat.134?page=0","KABEL LAN UTP cat5e permeter mlink/vascolink/spectra GREYRp1.50010RB+ TerjualKAB. BEKASI","https://shopee.co.id/KABEL-LAN-UTP-cat5e-permeter-mlink-vascolink-spectra-GREY-i.173978239.5638653245","KABEL LAN UTP cat5e permeter mlink/vascolink/spectra GREY","10RB+","4.8","null","null"
"1624804202-8","https://shopee.co.id/Komputer-Aksesoris-cat.134?page=0","60%offAdaptor Charger Laptop Acer Aspire 19v - 3.42a ORIGINALMurah LebayRp145.000Rp58.50010RB+ TerjualKOTA JAKARTA UTARA","https://shopee.co.id/Adaptor-Charger-Laptop-Acer-Aspire-19v-3.42a-ORIGINAL-i.54221754.1657825552","Adaptor Charger Laptop Acer Aspire 19v - 3.42a ORIGINAL","10RB+","4.8","null","null"
"1624804244-24","https://shopee.co.id/Komputer-Aksesoris-cat.134?page=0","Star29%offSandisk FlashDisk 16GB - Sandisk Flash Disk 16 GB - Sandisk USB Drive 16g USB 2.0  originalRp68.000Rp48.00010RB+ TerjualKOTA JAKARTA PUSAT","https://shopee.co.id/Sandisk-FlashDisk-16GB-Sandisk-Flash-Disk-16-GB-Sandisk-USB-Drive-16g-USB-2.0-original-i.2861483.913203868","Sandisk FlashDisk 16GB - Sandisk Flash Disk 16 GB - Sandisk USB Drive 16g USB 2.0  original","10RB+","4.9","null","null"
"1624804280-38","https://shopee.co.id/Komputer-Aksesoris-cat.134?page=0","V aigo 1gb 5hMurah LebayRp7.61510RB+ TerjualKAB. CIREBON","https://shopee.co.id/V-aigo-1gb-5h-i.21844137.3214680589","V aigo 1gb 5h","10RB+","5.0","null","null"
"1624804303-48","https://shopee.co.id/Komputer-Aksesoris-cat.134?page=0","SUBSCRIBER YOUTUBE PERMANEN 100% PASTI LOLOS MONETISASI bukan Jam tayang youtubRp85010RB+ TerjualKOTA BEKASI","https://shopee.co.id/SUBSCRIBER-YOUTUBE-PERMANEN-100-PASTI-LOLOS-MONETISASI-bukan-Jam-tayang-youtub-i.4084513.9916064544","SUBSCRIBER YOUTUBE PERMANEN 100% PASTI LOLOS MONETISASI bukan Jam tayang youtub","10RB+","5.0","null","null"
"1624804254-28","https://shopee.co.id/Komputer-Aksesoris-cat.134?page=0","StarTinta Epson EcoTank 003 Original Cyan Magenta Yellow Black Refil Ink Printer L1110 L3110 L3150 L5190Murah LebayRp70.00010RB+ TerjualKOTA SURABAYA","https://shopee.co.id/Tinta-Epson-EcoTank-003-Original-Cyan-Magenta-Yellow-Black-Refil-Ink-Printer-L1110-L3110-L3150-L5190-i.6298602.1586788434","Tinta Epson EcoTank 003 Original Cyan Magenta Yellow Black Refil Ink Printer L1110 L3110 L3150 L5190","10RB+","4.9","null","null"
"1624804207-10","https://shopee.co.id/Komputer-Aksesoris-cat.134?page=0","StarBaut Laptop ASUS ACER DELL HP LENOVO TOSHIBA Sekrup Komputer M2 M2.5 M3 SSD HDD DVD PC Silver/HitamRp1.00010RB+ TerjualKAB. BOGOR","https://shopee.co.id/Baut-Laptop-ASUS-ACER-DELL-HP-LENOVO-TOSHIBA-Sekrup-Komputer-M2-M2.5-M3-SSD-HDD-DVD-PC-Silver-Hitam-i.65101325.1483651374","Baut Laptop ASUS ACER DELL HP LENOVO TOSHIBA Sekrup Komputer M2 M2.5 M3 SSD HDD DVD PC Silver/Hitam","10RB+","4.8","null","null"
"1624804289-42","https://shopee.co.id/Komputer-Aksesoris-cat.134?page=0","42%off[KUKE] MEJA LIPAT / MEJA LAPTOP / MEJA LIPAT ANAK / MEJA LIPAT LAPTOP / MEJA BELAJARMurah LebayDiskon Rp1RBRp57.999 - Rp59.99910RB+ TerjualKOTA JAKARTA BARAT","https://shopee.co.id/-KUKE-MEJA-LIPAT-MEJA-LAPTOP-MEJA-LIPAT-ANAK-MEJA-LIPAT-LAPTOP-MEJA-BELAJAR-i.9291917.7715671271","[KUKE] MEJA LIPAT / MEJA LAPTOP / MEJA LIPAT ANAK / MEJA LIPAT LAPTOP / MEJA BELAJAR","10RB+","4.8","null","null"
"1624804275-36","https://shopee.co.id/Komputer-Aksesoris-cat.134?page=0","StarHDMI SWITCH 3 PORT 3 INPUT 1 OUTPUT / HDMI SWITCHER KABEL 3 PORT PLAYSTATION TV LED XBOX DVDMurah LebayRp39.0003,2RB TerjualKOTA JAKARTA UTARA","https://shopee.co.id/HDMI-SWITCH-3-PORT-3-INPUT-1-OUTPUT-HDMI-SWITCHER-KABEL-3-PORT-PLAYSTATION-TV-LED-XBOX-DVD-i.92926274.2684709900","HDMI SWITCH 3 PORT 3 INPUT 1 OUTPUT / HDMI SWITCHER KABEL 3 PORT PLAYSTATION TV LED XBOX DVD","3,2RB","4.8","null","null"
"1624804214-13","https://shopee.co.id/Komputer-Aksesoris-cat.134?page=0","Kabel Lan FTP Cat 5e CCA Outdoor Zimmlink Ecer Per MeterKombo HematRp1.92510RB+ TerjualKOTA SURABAYA","https://shopee.co.id/Kabel-Lan-FTP-Cat-5e-CCA-Outdoor-Zimmlink-Ecer-Per-Meter-i.59042456.6515245382","Kabel Lan FTP Cat 5e CCA Outdoor Zimmlink Ecer Per Meter","10RB+","4.9","null","null"
"1624804249-26","https://shopee.co.id/Komputer-Aksesoris-cat.134?page=0","Baterai cmos / battery Cmos CR 2032 SONY batere timbangan / scale / module RTC Arduino / jam clockGrosirRp1.50010RB+ TerjualKOTA JAKARTA UTARA","https://shopee.co.id/Baterai-cmos-battery-Cmos-CR-2032-SONY-batere-timbangan-scale-module-RTC-Arduino-jam-clock-i.193578117.4023134232","Baterai cmos / battery Cmos CR 2032 SONY batere timbangan / scale / module RTC Arduino / jam clock","10RB+","4.9","null","null"
"1624804323-56","https://shopee.co.id/Komputer-Aksesoris-cat.134?page=0","25%offMi Wi-Fi Range Extender Pro - 2 x 2 Antena Eksternal 300 Mbps (Mendukung Aplikasi Mi Home)Rp199.000Rp149.0008,9RB TerjualKOTA JAKARTA UTARA","https://shopee.co.id/Mi-Wi-Fi-Range-Extender-Pro-2-x-2-Antena-Eksternal-300-Mbps-(Mendukung-Aplikasi-Mi-Home)-i.51925611.4345185273","Mi Wi-Fi Range Extender Pro - 2 x 2 Antena Eksternal 300 Mbps (Mendukung Aplikasi Mi Home)","8,9RB","4.9","null","null"
"1624804313-52","https://shopee.co.id/Komputer-Aksesoris-cat.134?page=0","Star30%offSTYLUS PEN IPAD IPHONE ANDROID / PULPEN STYLUS HP 2 IN 1 QQ172Murah LebayRp15.999 - Rp17.59910RB+ TerjualKOTA JAKARTA PUSAT","https://shopee.co.id/STYLUS-PEN-IPAD-IPHONE-ANDROID-PULPEN-STYLUS-HP-2-IN-1-QQ172-i.181737191.5946427644","STYLUS PEN IPAD IPHONE ANDROID / PULPEN STYLUS HP 2 IN 1 QQ172","10RB+","4.8","null","null"
"1624804318-54","https://shopee.co.id/Komputer-Aksesoris-cat.134?page=0","25%offPRINTER BLUETOOTH MINI KASIR PPOB POS THERMAL 58MM OKAY 58D PRJ-58D BLUETOOTH dan USBMurah LebayGrosirRp240.750 - Rp292.11010RB+ TerjualKOTA JAKARTA UTARA","https://shopee.co.id/PRINTER-BLUETOOTH-MINI-KASIR-PPOB-POS-THERMAL-58MM-OKAY-58D-PRJ-58D-BLUETOOTH-dan-USB-i.4209241.1934251178","PRINTER BLUETOOTH MINI KASIR PPOB POS THERMAL 58MM OKAY 58D PRJ-58D BLUETOOTH dan USB","10RB+","4.8","null","null"
"1624804284-40","https://shopee.co.id/Komputer-Aksesoris-cat.134?page=0","Star20%offTinta Epson 664 Refill L220/L360/L120 PremiumMurah LebayPilih 10, diskon Rp2.500Rp23.000Rp18.30010RB+ TerjualKOTA JAKARTA TIMUR","https://shopee.co.id/Tinta-Epson-664-Refill-L220-L360-L120-Premium-i.264873804.6135906436","Tinta Epson 664 Refill L220/L360/L120 Premium","10RB+","4.9","null","null"
"1624804228-18","https://shopee.co.id/Komputer-Aksesoris-cat.134?page=0","74%offCHIP DOMINO HIGGS ISLAND - KOIN UNGU DOMINO HIGGS - TOP UP CHIP DOMINO HIGGS TERMURAHRp26.000 - Rp363.0009,6RB TerjualKOTA PEKANBARU","https://shopee.co.id/CHIP-DOMINO-HIGGS-ISLAND-KOIN-UNGU-DOMINO-HIGGS-TOP-UP-CHIP-DOMINO-HIGGS-TERMURAH-i.7287211.8346054848","CHIP DOMINO HIGGS ISLAND - KOIN UNGU DOMINO HIGGS - TOP UP CHIP DOMINO HIGGS TERMURAH","9,6RB","4.9","null","null"
"1624804307-50","https://shopee.co.id/Komputer-Aksesoris-cat.134?page=0","23%offTinta Epson 003 for L3110 L3150 L1110Murah LebayPilih 10, bayar Rp227.000Rp29.800Rp23.00010RB+ TerjualKOTA JAKARTA TIMUR","https://shopee.co.id/Tinta-Epson-003-for-L3110-L3150-L1110-i.202854613.7154635943","Tinta Epson 003 for L3110 L3150 L1110","10RB+","4.9","null","null"
