﻿web-scraper-order,web-scraper-start-url,produk,produk-href,nama,terjual,rating
"1624767542-22","https://www.tokopedia.com/p/makanan-minuman","#19Paket Hemat MingguanRp 30.000Kota BandungWarungBTB4.9  Terjual 898","https://www.tokopedia.com/warungbtb/paket-hemat-mingguan","Paket Hemat Mingguan","Terjual 898","4.9"
"1624767559-30","https://www.tokopedia.com/p/makanan-minuman","#11Raftels Fish Skin SPICY - Snack Keripik Kulit IkanRp 25.000Jakarta BaratRaftels Indonesia4.9  Terjual 1,4 rb","https://www.tokopedia.com/raftelsindonesia/raftels-fish-skin-spicy-snack-keripik-kulit-ikan","Raftels Fish Skin SPICY - Snack Keripik Kulit Ikan","Terjual 1.409","4.9"
"1624767551-26","https://www.tokopedia.com/p/makanan-minuman","#15Paket Movie Fun (1BOB, 1FM, 1TBC) - Jolly Time Mircowave Popcorn20%Rp 75.000Rp 60.000Jakarta BaratJolly Time Official5.0  Terjual 4,3 rb","https://www.tokopedia.com/jollytimeoc/paket-movie-fun-1bob-1fm-1tbc-jolly-time-mircowave-popcorn","Paket Movie Fun (1BOB, 1FM, 1TBC) - Jolly Time Mircowave Popcorn","Terjual 4.285","5"
"1624767546-24","https://www.tokopedia.com/p/makanan-minuman","#17SAY CIZZ - GLUTEN FREE CHEESE STICK 80GRCashbackRp 33.000Kota Cimahinamaste organic4.9  Terjual 2,1 rb","https://www.tokopedia.com/namasteorganic/say-cizz-gluten-free-cheese-stick-80gr","SAY CIZZ - GLUTEN FREE CHEESE STICK 80GR","Terjual 2.099","4.9"
"1624767561-31","https://www.tokopedia.com/p/makanan-minuman","#10Raftels Fish Skin ORIGINAL - Snack Keripik Kulit IkanRp 25.000Jakarta BaratRaftels Indonesia4.8  Terjual 1,8 rb","https://www.tokopedia.com/raftelsindonesia/raftels-fish-skin-original-snack-keripik-kulit-ikan","Raftels Fish Skin ORIGINAL - Snack Keripik Kulit Ikan","Terjual 1.756","4.8"
"1624767568-34","https://www.tokopedia.com/p/makanan-minuman","#710 Pcs Pisang Goreng Madu Bu Nanik (RESMI)CashbackRp 70.000Jakarta BaratPisang Goreng Madu Bu Nanik5.0  Terjual 12 rb","https://www.tokopedia.com/bunanik/10-pcs-pisang-goreng-madu-bu-nanik-resmi","10 Pcs Pisang Goreng Madu Bu Nanik (RESMI)","Terjual 12,2rb","5"
"1624767544-23","https://www.tokopedia.com/p/makanan-minuman","#18Garuda Kacang Telur - 100g x 3 Pcs (TGD)10%Rp 30.000Rp 27.000Jakarta SelatanGarudaFood4.9  Terjual 1,6 rb","https://www.tokopedia.com/garudafood/garuda-kacang-telur-100g-x-3-pcs-tgd","Garuda Kacang Telur - 100g x 3 Pcs (TGD)","Terjual 1.631","4.9"
"1624767572-36","https://www.tokopedia.com/p/makanan-minuman","#51 Dus isi 40 Pcs - Indomie Ayo Semangat Lagi+Totebag Pedas GenerationRp 121.000Jakarta TimurIndomie Official Store4.9  Terjual 741","https://www.tokopedia.com/indomieofficial/1-dus-isi-40-pcs-indomie-ayo-semangat-lagi-totebag-pedas-generation","1 Dus isi 40 Pcs - Indomie Ayo Semangat Lagi+Totebag Pedas Generation","Terjual 741","4.9"
"1624767570-35","https://www.tokopedia.com/p/makanan-minuman","#65 Pcs Pisang Goreng Madu Bu Nanik (RESMI)CashbackRp 35.000Jakarta BaratPisang Goreng Madu Bu Nanik4.9  Terjual 11 rb","https://www.tokopedia.com/bunanik/5-pcs-pisang-goreng-madu-bu-nanik-resmi","5 Pcs Pisang Goreng Madu Bu Nanik (RESMI)","Terjual 11,8rb","4.9"
"1624767574-37","https://www.tokopedia.com/p/makanan-minuman","#4Mie Gepeng Sales 16 pcs (campur semua varian rasa) (17)54%Rp 67.500Rp 31.200Jakarta SelatanGaga Official Store4.8  Terjual 1,4 rb","https://www.tokopedia.com/gagaofficial/mie-gepeng-sales-16-pcs-campur-semua-varian-rasa-17","Mie Gepeng Sales 16 pcs (campur semua varian rasa) (17)","Terjual 1.421","4.8"
"1624767553-27","https://www.tokopedia.com/p/makanan-minuman","#14[PAKET 2 KG] ALPUKAT MENTEGA REGULER AVOCADRON10%Rp 110.000Rp 99.000Jakarta BaratAvocadron4.8  Terjual 17 rb","https://www.tokopedia.com/avocadron/paket-2-kg-alpukat-mentega-reguler-avocadron","[PAKET 2 KG] ALPUKAT MENTEGA REGULER AVOCADRON","Terjual 17,3rb","4.8"
"1624767563-32","https://www.tokopedia.com/p/makanan-minuman","#9Lay's Rumput Laut 68 Gr - 3 PcsRp 28.800Kab. TangerangIndofood Snack Time4.9  Terjual 3,2 rb","https://www.tokopedia.com/indofoodsnack/lay-s-rumput-laut-68-gr-3-pcs","Lay's Rumput Laut 68 Gr - 3 Pcs","Terjual 3.189","4.9"
"1624767578-39","https://www.tokopedia.com/p/makanan-minuman","#2Tropicana Slim Madu 350ml27%Rp 72.600Rp 53.000Jakarta TimurNutriMart4.9  Terjual 6,7 rb","https://www.tokopedia.com/nutrimartid/tropicana-slim-madu-350ml","Tropicana Slim Madu 350ml","Terjual 6.718","4.9"
"1624767576-38","https://www.tokopedia.com/p/makanan-minuman","#3Paket Indomie Rasa Mie Celor 5 Pcs - FREE Handsanitizer 50MLCashbackRp 30.000Kota PalembangD'justin Shop4.9  Terjual 611","https://www.tokopedia.com/djustinhop/paket-indomie-rasa-mie-celor-5-pcs-free-handsanitizer-50ml","Paket Indomie Rasa Mie Celor 5 Pcs - FREE Handsanitizer 50ML","Terjual 611","4.9"
"1624767548-25","https://www.tokopedia.com/p/makanan-minuman","#16PAKET ISI 2 - Mujigae Topokki 300gr / Teokbokki Instan / TokpokiRp 78.000Jakarta TimurMujigae Official4.9  Terjual 6,6 rb","https://www.tokopedia.com/mujigaeofficial/paket-isi-2-mujigae-topokki-300gr-teokbokki-instan-tokpoki","PAKET ISI 2 - Mujigae Topokki 300gr / Teokbokki Instan / Tokpoki","Terjual 6.581","4.9"
"1624767555-28","https://www.tokopedia.com/p/makanan-minuman","#13Pepaya California32%Rp 18.700Rp 12.700Kab. BogorSayurbox4.8  Terjual 16 rb","https://www.tokopedia.com/sayurbox/pepaya-california","Pepaya California","Terjual 16,2rb","4.8"
"1624767540-21","https://www.tokopedia.com/p/makanan-minuman","#20Minyak Tropikal 1LtRp 22.000Kota SemarangBerkahe Shop5.0  Terjual 469","https://www.tokopedia.com/berkaheshop/minyak-tropikal-1lt","Minyak Tropikal 1Lt","Terjual 469","5"
"1624767580-40","https://www.tokopedia.com/p/makanan-minuman","#1GAGA Paket Special FREE Container Box Serba Guna55%Rp 46.500Rp 20.800Jakarta SelatanGaga Official Store4.9  Terjual 7,4 rb","https://www.tokopedia.com/gagaofficial/gaga-paket-special-free-container-box-serba-guna","GAGA Paket Special FREE Container Box Serba Guna","Terjual 7.388","4.9"
"1624767557-29","https://www.tokopedia.com/p/makanan-minuman","#12Pisang (Banana) Cavendish (500gr)43%Rp 15.700Rp 8.900Kab. BogorSayurbox4.9  Terjual 24 rb","https://www.tokopedia.com/sayurbox/pisang-banana-cavendish-500gr","Pisang (Banana) Cavendish (500gr)","Terjual 24,1rb","4.9"
"1624767566-33","https://www.tokopedia.com/p/makanan-minuman","#8ABC Susu Kopi Bag ( Isi 20Sachet @31 Gram)15%Rp 27.200Rp 23.120Kota BekasiKapal Api Store5.0  Terjual 978","https://www.tokopedia.com/kapalapistore/abc-susu-kopi-bag-isi-20sachet-31-gram","ABC Susu Kopi Bag ( Isi 20Sachet @31 Gram)","Terjual 978","5"
